…
amy2a_vep <- read_tsv("vep/AMY2A.txt", comment = "##") %>% mutate(amy="AMY2A") %>% filter(Gene=="ENSG00000243480")
amy2b_vep <- read_tsv("vep/AMY2B.txt", comment = "##") %>% mutate(amy="AMY2B") %>% filter(Gene=="ENSG00000240038")
amy_vep <- bind_rows(amy1_vep, amy2a_vep, amy2b_vep) %>%
  janitor::clean_names() %>%
  mutate(position=str_remove(location, "chr1:")) %>%
  separate(extra, into = c("impact", "extra"), sep = ";", extra = "merge") %>%
  mutate(impact=str_remove(impact, "IMPACT="), impact=fct_relevel(impact, c("MODIFIER", "LOW", "MODERATE", "HIGH")))
## count of predicted effect of all variants
amy_vep %>%
  #filter(amy=="AMY2B") %>%
  count(consequence) %>%
  arrange(desc(n))
```

    ## # A tibble: 21 × 2
    ##    consequence                                            n
    ##    <chr>                                              <int>
    ##  1 intron_variant                                       266
    ##  2 downstream_gene_variant                              248
    ##  3 upstream_gene_variant                                213
    ##  4 intron_variant,non_coding_transcript_variant          96
    ##  5 missense_variant                                      31
    ##  6 intron_variant,NMD_transcript_variant                 28
    ##  7 synonymous_variant                                    27
    ##  8 non_coding_transcript_exon_variant                    23
    ##  9 synonymous_variant,NMD_transcript_variant              5
    ## 10 splice_polypyrimidine_tract_variant,intron_variant     4
    ## # ℹ 11 more rows
…
amy_vcf <- bind_rows(amy1_vcf, amy2a_vcf, amy2b_vcf) %>%
  filter(genotype=="1/1") %>%
  transmute(chromosome=number_chrom, position=as.integer(pos), ref, alt, haplotype=str_replace_all(haplotype, "_number_", "#"))
## a table of CDS variants and the haplotypes that carry them
cds_variant_table <-cds_variant %>%
  transmute(gene=amy, chromosome="chr1", position=parse_integer(position), alt=allele, consequence, amino_acids, codons, impact) %>%
  left_join(amy_vcf) %>%
  relocate(gene, chromosome, position, ref)
## frequency of all CDS variants
cds_variant_table %>%
  count(gene, chromosome, position, alt, consequence) %>%
  arrange(-n)
```

    ## # A tibble: 32 × 6
    ##    gene  chromosome  position alt   consequence     n
    ##    <chr> <chr>          <int> <chr> <fct>       <int>
    ##  1 AMY2A chr1       103623874 C     synonymous     34
    ##  2 AMY2A chr1       103619572 T     missense       13
    ##  3 AMY2A chr1       103620644 A     missense       10
    ##  4 AMY2A chr1       103625659 T     synonymous      7
    ##  5 AMY1  chr1       103658557 C     missense        5
    ##  6 AMY2A chr1       103619028 T     missense        3
    ##  7 AMY2A chr1       103620640 G     synonymous      3
    ##  8 AMY2B chr1       103574382 A     missense        3
    ##  9 AMY1  chr1       103660629 T     stop_gained     2
    ## 10 AMY1  chr1       103662674 C     synonymous      2
    ## # ℹ 22 more rows
…
